Reads per sec,Writes per sec,Throughput (read),Throughput (write),Total time,Total Number of events,Avg. Latency,95th Latency
330.2,220.13,5.16,3.44,240.0349,301063,0.8,2
334.49,223,5.23,3.48,240.0029,304973,0.79,1.47
167.22,111.48,2.61,1.74,240.0454,152405,1.57,10.84
147.25,98.17,2.3,1.53,240.0021,134166,1.79,12.75
119.99,80,1.87,1.25,240.0123,109319,2.19,16.41
97.8,65.2,1.53,1.02,240.0032,89168,2.69,18.61
242.5,161.67,3.79,2.53,240.0003,221042,1.08,3.75
153.12,102.08,2.39,1.59,240.0019,139584,1.72,11.65
126.29,84.19,1.97,1.32,240.0025,115158,2.08,15.27
108.72,72.48,1.7,1.13,240.0557,99054,2.42,16.41
110.75,73.83,1.73,1.15,240.0061,100891,2.38,16.41
252.37,168.25,3.94,2.63,160.0028,153318,1.04,4.41
268.98,179.32,4.2,2.8,180.0111,183876,0.98,3.75
177.32,118.21,2.77,1.85,180.0107,121231,1.48,10.09
135.63,90.42,2.12,1.41,180.0196,92661,1.94,15
118.66,79.11,1.85,1.24,180.0093,81120,2.22,16.12
260.99,174,4.08,2.72,180.0026,178405,1.01,3.68
263.99,175.99,4.12,2.75,180.0067,180453,1,2.81
163.31,108.87,2.55,1.7,180.0252,111595,1.61,11.04
134.99,90,2.11,1.41,180.0076,92298,1.95,14.21
114.33,76.22,1.79,1.19,180.0004,78152,2.3,16.12
268.31,178.88,4.19,2.79,180.0121,183414,0.98,2.57
164.32,109.55,2.57,1.71,180.0086,112287,1.6,11.04
136.66,91.11,2.14,1.42,180.0006,93358,1.93,13.95
120.99,80.66,1.89,1.26,180.0149,82730,2.17,15.55
