[172.18.23.226] Executing task 'check'
[172.18.23.226] sudo: sysbench --test=fileio --file-total-size=2G prepare
[172.18.23.226] out: sudo password:
[172.18.23.226] out: WARNING: the --test option is deprecated. You can pass a script name or path on the command line without any options.
[172.18.23.226] out: sysbench 1.0.11 (using system LuaJIT 2.1.0-beta3)
[172.18.23.226] out: 
[172.18.23.226] out: 128 files, 16384Kb each, 2048Mb total
[172.18.23.226] out: Creating files for the test...
[172.18.23.226] out: Extra file open flags: 0
[172.18.23.226] out: Reusing existing file test_file.0
[172.18.23.226] out: Reusing existing file test_file.1
[172.18.23.226] out: Reusing existing file test_file.2
[172.18.23.226] out: Reusing existing file test_file.3
[172.18.23.226] out: Reusing existing file test_file.4
[172.18.23.226] out: Reusing existing file test_file.5
[172.18.23.226] out: Reusing existing file test_file.6
[172.18.23.226] out: Reusing existing file test_file.7
[172.18.23.226] out: Reusing existing file test_file.8
[172.18.23.226] out: Reusing existing file test_file.9
[172.18.23.226] out: Reusing existing file test_file.10
[172.18.23.226] out: Reusing existing file test_file.11
[172.18.23.226] out: Reusing existing file test_file.12
[172.18.23.226] out: Reusing existing file test_file.13
[172.18.23.226] out: Reusing existing file test_file.14
[172.18.23.226] out: Reusing existing file test_file.15
[172.18.23.226] out: Reusing existing file test_file.16
[172.18.23.226] out: Reusing existing file test_file.17
[172.18.23.226] out: Reusing existing file test_file.18
[172.18.23.226] out: Reusing existing file test_file.19
[172.18.23.226] out: Reusing existing file test_file.20
[172.18.23.226] out: Reusing existing file test_file.21
[172.18.23.226] out: Reusing existing file test_file.22
[172.18.23.226] out: Reusing existing file test_file.23
[172.18.23.226] out: Reusing existing file test_file.24
[172.18.23.226] out: Reusing existing file test_file.25
[172.18.23.226] out: Reusing existing file test_file.26
[172.18.23.226] out: Reusing existing file test_file.27
[172.18.23.226] out: Reusing existing file test_file.28
[172.18.23.226] out: Reusing existing file test_file.29
[172.18.23.226] out: Reusing existing file test_file.30
[172.18.23.226] out: Reusing existing file test_file.31
[172.18.23.226] out: Reusing existing file test_file.32
[172.18.23.226] out: Reusing existing file test_file.33
[172.18.23.226] out: Reusing existing file test_file.34
[172.18.23.226] out: Reusing existing file test_file.35
[172.18.23.226] out: Reusing existing file test_file.36
[172.18.23.226] out: Reusing existing file test_file.37
[172.18.23.226] out: Reusing existing file test_file.38
[172.18.23.226] out: Reusing existing file test_file.39
[172.18.23.226] out: Reusing existing file test_file.40
[172.18.23.226] out: Reusing existing file test_file.41
[172.18.23.226] out: Reusing existing file test_file.42
[172.18.23.226] out: Reusing existing file test_file.43
[172.18.23.226] out: Reusing existing file test_file.44
[172.18.23.226] out: Reusing existing file test_file.45
[172.18.23.226] out: Reusing existing file test_file.46
[172.18.23.226] out: Reusing existing file test_file.47
[172.18.23.226] out: Reusing existing file test_file.48
[172.18.23.226] out: Reusing existing file test_file.49
[172.18.23.226] out: Reusing existing file test_file.50
[172.18.23.226] out: Reusing existing file test_file.51
[172.18.23.226] out: Reusing existing file test_file.52
[172.18.23.226] out: Reusing existing file test_file.53
[172.18.23.226] out: Reusing existing file test_file.54
[172.18.23.226] out: Reusing existing file test_file.55
[172.18.23.226] out: Reusing existing file test_file.56
[172.18.23.226] out: Reusing existing file test_file.57
[172.18.23.226] out: Reusing existing file test_file.58
[172.18.23.226] out: Reusing existing file test_file.59
[172.18.23.226] out: Reusing existing file test_file.60
[172.18.23.226] out: Reusing existing file test_file.61
[172.18.23.226] out: Reusing existing file test_file.62
[172.18.23.226] out: Reusing existing file test_file.63
[172.18.23.226] out: Reusing existing file test_file.64
[172.18.23.226] out: Reusing existing file test_file.65
[172.18.23.226] out: Reusing existing file test_file.66
[172.18.23.226] out: Reusing existing file test_file.67
[172.18.23.226] out: Reusing existing file test_file.68
[172.18.23.226] out: Reusing existing file test_file.69
[172.18.23.226] out: Reusing existing file test_file.70
[172.18.23.226] out: Reusing existing file test_file.71
[172.18.23.226] out: Reusing existing file test_file.72
[172.18.23.226] out: Reusing existing file test_file.73
[172.18.23.226] out: Reusing existing file test_file.74
[172.18.23.226] out: Reusing existing file test_file.75
[172.18.23.226] out: Reusing existing file test_file.76
[172.18.23.226] out: Reusing existing file test_file.77
[172.18.23.226] out: Reusing existing file test_file.78
[172.18.23.226] out: Reusing existing file test_file.79
[172.18.23.226] out: Reusing existing file test_file.80
[172.18.23.226] out: Reusing existing file test_file.81
[172.18.23.226] out: Reusing existing file test_file.82
[172.18.23.226] out: Reusing existing file test_file.83
[172.18.23.226] out: Reusing existing file test_file.84
[172.18.23.226] out: Reusing existing file test_file.85
[172.18.23.226] out: Reusing existing file test_file.86
[172.18.23.226] out: Reusing existing file test_file.87
[172.18.23.226] out: Reusing existing file test_file.88
[172.18.23.226] out: Reusing existing file test_file.89
[172.18.23.226] out: Reusing existing file test_file.90
[172.18.23.226] out: Reusing existing file test_file.91
[172.18.23.226] out: Reusing existing file test_file.92
[172.18.23.226] out: Reusing existing file test_file.93
[172.18.23.226] out: Reusing existing file test_file.94
[172.18.23.226] out: Reusing existing file test_file.95
[172.18.23.226] out: Reusing existing file test_file.96
[172.18.23.226] out: Reusing existing file test_file.97
[172.18.23.226] out: Reusing existing file test_file.98
[172.18.23.226] out: Reusing existing file test_file.99
[172.18.23.226] out: Reusing existing file test_file.100
[172.18.23.226] out: Reusing existing file test_file.101
[172.18.23.226] out: Reusing existing file test_file.102
[172.18.23.226] out: Reusing existing file test_file.103
[172.18.23.226] out: Reusing existing file test_file.104
[172.18.23.226] out: Reusing existing file test_file.105
[172.18.23.226] out: Reusing existing file test_file.106
[172.18.23.226] out: Reusing existing file test_file.107
[172.18.23.226] out: Reusing existing file test_file.108
[172.18.23.226] out: Reusing existing file test_file.109
[172.18.23.226] out: Reusing existing file test_file.110
[172.18.23.226] out: Reusing existing file test_file.111
[172.18.23.226] out: Reusing existing file test_file.112
[172.18.23.226] out: Reusing existing file test_file.113
[172.18.23.226] out: Reusing existing file test_file.114
[172.18.23.226] out: Reusing existing file test_file.115
[172.18.23.226] out: Reusing existing file test_file.116
[172.18.23.226] out: Reusing existing file test_file.117
[172.18.23.226] out: Reusing existing file test_file.118
[172.18.23.226] out: Reusing existing file test_file.119
[172.18.23.226] out: Reusing existing file test_file.120
[172.18.23.226] out: Reusing existing file test_file.121
[172.18.23.226] out: Reusing existing file test_file.122
[172.18.23.226] out: Reusing existing file test_file.123
[172.18.23.226] out: Reusing existing file test_file.124
[172.18.23.226] out: Reusing existing file test_file.125
[172.18.23.226] out: Reusing existing file test_file.126
[172.18.23.226] out: Reusing existing file test_file.127
[172.18.23.226] out: No bytes written.
[172.18.23.226] out: 

[172.18.23.226] sudo: sysbench --test=fileio --file-total-size=2G --file-test-mode=rndrw --max-time=90 --max-requests=0 run
[172.18.23.226] out: sudo password:
[172.18.23.226] out: WARNING: the --test option is deprecated. You can pass a script name or path on the command line without any options.
[172.18.23.226] out: WARNING: --max-time is deprecated, use --time instead
[172.18.23.226] out: sysbench 1.0.11 (using system LuaJIT 2.1.0-beta3)
[172.18.23.226] out: 
[172.18.23.226] out: Running the test with following options:
[172.18.23.226] out: Number of threads: 1
[172.18.23.226] out: Initializing random number generator from current time
[172.18.23.226] out: 
[172.18.23.226] out: 
[172.18.23.226] out: Extra file open flags: 0
[172.18.23.226] out: 128 files, 16MiB each
[172.18.23.226] out: 2GiB total file size
[172.18.23.226] out: Block size 16KiB
[172.18.23.226] out: Number of IO requests: 0
[172.18.23.226] out: Read/Write ratio for combined random IO test: 1.50
[172.18.23.226] out: Periodic FSYNC enabled, calling fsync() each 100 requests.
[172.18.23.226] out: Calling fsync() at the end of test, Enabled.
[172.18.23.226] out: Using synchronous I/O mode
[172.18.23.226] out: Doing random r/w test
[172.18.23.226] out: Initializing worker threads...
[172.18.23.226] out: 
[172.18.23.226] out: Threads started!
[172.18.23.226] out: 
[172.18.23.226] out: 
[172.18.23.226] out: File operations:
[172.18.23.226] out:     reads/s:                      76.65
[172.18.23.226] out:     writes/s:                     51.10
[172.18.23.226] out:     fsyncs/s:                     163.25
[172.18.23.226] out: 
[172.18.23.226] out: Throughput:
[172.18.23.226] out:     read, MiB/s:                  1.20
[172.18.23.226] out:     written, MiB/s:               0.80
[172.18.23.226] out: 
[172.18.23.226] out: General statistics:
[172.18.23.226] out:     total time:                          90.0128s
[172.18.23.226] out:     total number of events:              26195
[172.18.23.226] out: 
[172.18.23.226] out: Latency (ms):
[172.18.23.226] out:          min:                                  0.00
[172.18.23.226] out:          avg:                                  3.43
[172.18.23.226] out:          max:                                175.30
[172.18.23.226] out:          95th percentile:                     24.38
[172.18.23.226] out:          sum:                              89954.84
[172.18.23.226] out: 
[172.18.23.226] out: Threads fairness:
[172.18.23.226] out:     events (avg/stddev):           26195.0000/0.00
[172.18.23.226] out:     execution time (avg/stddev):   89.9548/0.00
[172.18.23.226] out: 
[172.18.23.226] out: 

[172.18.23.230] Executing task 'check'
[172.18.23.230] sudo: sysbench --test=fileio --file-total-size=2G prepare
[172.18.23.230] out: sudo password:
[172.18.23.230] out: WARNING: the --test option is deprecated. You can pass a script name or path on the command line without any options.
[172.18.23.230] out: sysbench 1.0.11 (using system LuaJIT 2.1.0-beta3)
[172.18.23.230] out: 
[172.18.23.230] out: 128 files, 16384Kb each, 2048Mb total
[172.18.23.230] out: Creating files for the test...
[172.18.23.230] out: Extra file open flags: 0
[172.18.23.230] out: Reusing existing file test_file.0
[172.18.23.230] out: Reusing existing file test_file.1
[172.18.23.230] out: Reusing existing file test_file.2
[172.18.23.230] out: Reusing existing file test_file.3
[172.18.23.230] out: Reusing existing file test_file.4
[172.18.23.230] out: Reusing existing file test_file.5
[172.18.23.230] out: Reusing existing file test_file.6
[172.18.23.230] out: Reusing existing file test_file.7
[172.18.23.230] out: Reusing existing file test_file.8
[172.18.23.230] out: Reusing existing file test_file.9
[172.18.23.230] out: Reusing existing file test_file.10
[172.18.23.230] out: Reusing existing file test_file.11
[172.18.23.230] out: Reusing existing file test_file.12
[172.18.23.230] out: Reusing existing file test_file.13
[172.18.23.230] out: Reusing existing file test_file.14
[172.18.23.230] out: Reusing existing file test_file.15
[172.18.23.230] out: Reusing existing file test_file.16
[172.18.23.230] out: Reusing existing file test_file.17
[172.18.23.230] out: Reusing existing file test_file.18
[172.18.23.230] out: Reusing existing file test_file.19
[172.18.23.230] out: Reusing existing file test_file.20
[172.18.23.230] out: Reusing existing file test_file.21
[172.18.23.230] out: Reusing existing file test_file.22
[172.18.23.230] out: Reusing existing file test_file.23
[172.18.23.230] out: Reusing existing file test_file.24
[172.18.23.230] out: Reusing existing file test_file.25
[172.18.23.230] out: Reusing existing file test_file.26
[172.18.23.230] out: Reusing existing file test_file.27
[172.18.23.230] out: Reusing existing file test_file.28
[172.18.23.230] out: Reusing existing file test_file.29
[172.18.23.230] out: Reusing existing file test_file.30
[172.18.23.230] out: Reusing existing file test_file.31
[172.18.23.230] out: Reusing existing file test_file.32
[172.18.23.230] out: Reusing existing file test_file.33
[172.18.23.230] out: Reusing existing file test_file.34
[172.18.23.230] out: Reusing existing file test_file.35
[172.18.23.230] out: Reusing existing file test_file.36
[172.18.23.230] out: Reusing existing file test_file.37
[172.18.23.230] out: Reusing existing file test_file.38
[172.18.23.230] out: Reusing existing file test_file.39
[172.18.23.230] out: Reusing existing file test_file.40
[172.18.23.230] out: Reusing existing file test_file.41
[172.18.23.230] out: Reusing existing file test_file.42
[172.18.23.230] out: Reusing existing file test_file.43
[172.18.23.230] out: Reusing existing file test_file.44
[172.18.23.230] out: Reusing existing file test_file.45
[172.18.23.230] out: Reusing existing file test_file.46
[172.18.23.230] out: Reusing existing file test_file.47
[172.18.23.230] out: Reusing existing file test_file.48
[172.18.23.230] out: Reusing existing file test_file.49
[172.18.23.230] out: Reusing existing file test_file.50
[172.18.23.230] out: Reusing existing file test_file.51
[172.18.23.230] out: Reusing existing file test_file.52
[172.18.23.230] out: Reusing existing file test_file.53
[172.18.23.230] out: Reusing existing file test_file.54
[172.18.23.230] out: Reusing existing file test_file.55
[172.18.23.230] out: Reusing existing file test_file.56
[172.18.23.230] out: Reusing existing file test_file.57
[172.18.23.230] out: Reusing existing file test_file.58
[172.18.23.230] out: Reusing existing file test_file.59
[172.18.23.230] out: Reusing existing file test_file.60
[172.18.23.230] out: Reusing existing file test_file.61
[172.18.23.230] out: Reusing existing file test_file.62
[172.18.23.230] out: Reusing existing file test_file.63
[172.18.23.230] out: Reusing existing file test_file.64
[172.18.23.230] out: Reusing existing file test_file.65
[172.18.23.230] out: Reusing existing file test_file.66
[172.18.23.230] out: Reusing existing file test_file.67
[172.18.23.230] out: Reusing existing file test_file.68
[172.18.23.230] out: Reusing existing file test_file.69
[172.18.23.230] out: Reusing existing file test_file.70
[172.18.23.230] out: Reusing existing file test_file.71
[172.18.23.230] out: Reusing existing file test_file.72
[172.18.23.230] out: Reusing existing file test_file.73
[172.18.23.230] out: Reusing existing file test_file.74
[172.18.23.230] out: Reusing existing file test_file.75
[172.18.23.230] out: Reusing existing file test_file.76
[172.18.23.230] out: Reusing existing file test_file.77
[172.18.23.230] out: Reusing existing file test_file.78
[172.18.23.230] out: Reusing existing file test_file.79
[172.18.23.230] out: Reusing existing file test_file.80
[172.18.23.230] out: Reusing existing file test_file.81
[172.18.23.230] out: Reusing existing file test_file.82
[172.18.23.230] out: Reusing existing file test_file.83
[172.18.23.230] out: Reusing existing file test_file.84
[172.18.23.230] out: Reusing existing file test_file.85
[172.18.23.230] out: Reusing existing file test_file.86
[172.18.23.230] out: Reusing existing file test_file.87
[172.18.23.230] out: Reusing existing file test_file.88
[172.18.23.230] out: Reusing existing file test_file.89
[172.18.23.230] out: Reusing existing file test_file.90
[172.18.23.230] out: Reusing existing file test_file.91
[172.18.23.230] out: Reusing existing file test_file.92
[172.18.23.230] out: Reusing existing file test_file.93
[172.18.23.230] out: Reusing existing file test_file.94
[172.18.23.230] out: Reusing existing file test_file.95
[172.18.23.230] out: Reusing existing file test_file.96
[172.18.23.230] out: Reusing existing file test_file.97
[172.18.23.230] out: Reusing existing file test_file.98
[172.18.23.230] out: Reusing existing file test_file.99
[172.18.23.230] out: Reusing existing file test_file.100
[172.18.23.230] out: Reusing existing file test_file.101
[172.18.23.230] out: Reusing existing file test_file.102
[172.18.23.230] out: Reusing existing file test_file.103
[172.18.23.230] out: Reusing existing file test_file.104
[172.18.23.230] out: Reusing existing file test_file.105
[172.18.23.230] out: Reusing existing file test_file.106
[172.18.23.230] out: Reusing existing file test_file.107
[172.18.23.230] out: Reusing existing file test_file.108
[172.18.23.230] out: Reusing existing file test_file.109
[172.18.23.230] out: Reusing existing file test_file.110
[172.18.23.230] out: Reusing existing file test_file.111
[172.18.23.230] out: Reusing existing file test_file.112
[172.18.23.230] out: Reusing existing file test_file.113
[172.18.23.230] out: Reusing existing file test_file.114
[172.18.23.230] out: Reusing existing file test_file.115
[172.18.23.230] out: Reusing existing file test_file.116
[172.18.23.230] out: Reusing existing file test_file.117
[172.18.23.230] out: Reusing existing file test_file.118
[172.18.23.230] out: Reusing existing file test_file.119
[172.18.23.230] out: Reusing existing file test_file.120
[172.18.23.230] out: Reusing existing file test_file.121
[172.18.23.230] out: Reusing existing file test_file.122
[172.18.23.230] out: Reusing existing file test_file.123
[172.18.23.230] out: Reusing existing file test_file.124
[172.18.23.230] out: Reusing existing file test_file.125
[172.18.23.230] out: Reusing existing file test_file.126
[172.18.23.230] out: Reusing existing file test_file.127
[172.18.23.230] out: No bytes written.
[172.18.23.230] out: 

[172.18.23.230] sudo: sysbench --test=fileio --file-total-size=2G --file-test-mode=rndrw --max-time=90 --max-requests=0 run
[172.18.23.230] out: sudo password:
[172.18.23.230] out: WARNING: the --test option is deprecated. You can pass a script name or path on the command line without any options.
[172.18.23.230] out: WARNING: --max-time is deprecated, use --time instead
[172.18.23.230] out: sysbench 1.0.11 (using system LuaJIT 2.1.0-beta3)
[172.18.23.230] out: 
[172.18.23.230] out: Running the test with following options:
[172.18.23.230] out: Number of threads: 1
[172.18.23.230] out: Initializing random number generator from current time
[172.18.23.230] out: 
[172.18.23.230] out: 
[172.18.23.230] out: Extra file open flags: 0
[172.18.23.230] out: 128 files, 16MiB each
[172.18.23.230] out: 2GiB total file size
[172.18.23.230] out: Block size 16KiB
[172.18.23.230] out: Number of IO requests: 0
[172.18.23.230] out: Read/Write ratio for combined random IO test: 1.50
[172.18.23.230] out: Periodic FSYNC enabled, calling fsync() each 100 requests.
[172.18.23.230] out: Calling fsync() at the end of test, Enabled.
[172.18.23.230] out: Using synchronous I/O mode
[172.18.23.230] out: Doing random r/w test
[172.18.23.230] out: Initializing worker threads...
[172.18.23.230] out: 
[172.18.23.230] out: Threads started!
[172.18.23.230] out: 
[172.18.23.230] out: 
[172.18.23.230] out: File operations:
[172.18.23.230] out:     reads/s:                      318.66
[172.18.23.230] out:     writes/s:                     212.44
[172.18.23.230] out:     fsyncs/s:                     678.74
[172.18.23.230] out: 
[172.18.23.230] out: Throughput:
[172.18.23.230] out:     read, MiB/s:                  4.98
[172.18.23.230] out:     written, MiB/s:               3.32
[172.18.23.230] out: 
[172.18.23.230] out: General statistics:
[172.18.23.230] out:     total time:                          90.0011s
[172.18.23.230] out:     total number of events:              108888
[172.18.23.230] out: 
[172.18.23.230] out: Latency (ms):
[172.18.23.230] out:          min:                                  0.00
[172.18.23.230] out:          avg:                                  0.83
[172.18.23.230] out:          max:                                162.45
[172.18.23.230] out:          95th percentile:                      0.81
[172.18.23.230] out:          sum:                              89871.46
[172.18.23.230] out: 
[172.18.23.230] out: Threads fairness:
[172.18.23.230] out:     events (avg/stddev):           108888.0000/0.00
[172.18.23.230] out:     execution time (avg/stddev):   89.8715/0.00
[172.18.23.230] out: 
[172.18.23.230] out: 


Done.
Disconnecting from 172.18.23.230... done.
Disconnecting from 172.18.23.226... done.
