sysbench 1.0.17 (using system LuaJIT 2.1.0-beta3)

Running the test with following options:
Number of threads: 1
Initializing random number generator from current time


Extra file open flags: (none)
64 files, 16MiB each
1GiB total file size
Block size 256KiB
Periodic FSYNC enabled, calling fsync() each 100 requests.
Calling fsync() at the end of test, Enabled.
Using synchronous I/O mode
Doing sequential write (creation) test
Initializing worker threads...

Threads started!


File operations:
    reads/s:                      0.00
    writes/s:                     187.06
    fsyncs/s:                     122.67

Throughput:
    read, MiB/s:                  0.00
    written, MiB/s:               46.77

General statistics:
    total time:                          10.1533s
    total number of events:              3082

Latency (ms):
         min:                                    0.13
         avg:                                    3.29
         max:                                  406.55
         95th percentile:                        0.32
         sum:                                10135.87

Threads fairness:
    events (avg/stddev):           3082.0000/0.00
    execution time (avg/stddev):   10.1359/0.00

