sysbench 1.0.17 (using system LuaJIT 2.1.0-beta3)

Running the test with following options:
Number of threads: 1
Initializing random number generator from current time


Extra file open flags: (none)
64 files, 1GiB each
64GiB total file size
Block size 16KiB
Periodic FSYNC enabled, calling fsync() each 100 requests.
Calling fsync() at the end of test, Enabled.
Using synchronous I/O mode
Doing sequential write (creation) test
Initializing worker threads...

Threads started!


File operations:
    reads/s:                      0.00
    writes/s:                     1406.03
    fsyncs/s:                     899.96

Throughput:
    read, MiB/s:                  0.00
    written, MiB/s:               21.97

General statistics:
    total time:                          10.0252s
    total number of events:              23061

Latency (ms):
         min:                                    0.01
         avg:                                    0.43
         max:                                  167.71
         95th percentile:                        0.24
         sum:                                 9995.70

Threads fairness:
    events (avg/stddev):           23061.0000/0.00
    execution time (avg/stddev):   9.9957/0.00

