sysbench 1.0.17 (using system LuaJIT 2.1.0-beta3)

Running the test with following options:
Number of threads: 1
Initializing random number generator from current time


Extra file open flags: (none)
1 files, 1GiB each
1GiB total file size
Block size 128KiB
Periodic FSYNC enabled, calling fsync() each 100 requests.
Calling fsync() at the end of test, Enabled.
Using synchronous I/O mode
Doing sequential write (creation) test
Initializing worker threads...

Threads started!


File operations:
    reads/s:                      0.00
    writes/s:                     501.79
    fsyncs/s:                     5.12

Throughput:
    read, MiB/s:                  0.00
    written, MiB/s:               62.72

General statistics:
    total time:                          10.1597s
    total number of events:              5151

Latency (ms):
         min:                                    0.07
         avg:                                    1.97
         max:                                  231.04
         95th percentile:                        0.18
         sum:                                10154.80

Threads fairness:
    events (avg/stddev):           5151.0000/0.00
    execution time (avg/stddev):   10.1548/0.00

