sysbench 1.0.17 (using system LuaJIT 2.1.0-beta3)

Running the test with following options:
Number of threads: 1
Initializing random number generator from current time


Extra file open flags: (none)
16 files, 256MiB each
4GiB total file size
Block size 16KiB
Periodic FSYNC enabled, calling fsync() each 100 requests.
Calling fsync() at the end of test, Enabled.
Using synchronous I/O mode
Doing sequential write (creation) test
Initializing worker threads...

Threads started!


File operations:
    reads/s:                      0.00
    writes/s:                     1181.02
    fsyncs/s:                     189.06

Throughput:
    read, MiB/s:                  0.00
    written, MiB/s:               18.45

General statistics:
    total time:                          10.0735s
    total number of events:              13789

Latency (ms):
         min:                                    0.01
         avg:                                    0.73
         max:                                  200.14
         95th percentile:                        0.23
         sum:                                10059.84

Threads fairness:
    events (avg/stddev):           13789.0000/0.00
    execution time (avg/stddev):   10.0598/0.00

