sysbench 1.0.17 (using system LuaJIT 2.1.0-beta3)

Running the test with following options:
Number of threads: 1
Initializing random number generator from current time


Extra file open flags: (none)
1 files, 32GiB each
32GiB total file size
Block size 4KiB
Periodic FSYNC enabled, calling fsync() each 100 requests.
Calling fsync() at the end of test, Enabled.
Using synchronous I/O mode
Doing sequential write (creation) test
Initializing worker threads...

Threads started!


File operations:
    reads/s:                      0.00
    writes/s:                     2261.01
    fsyncs/s:                     22.71

Throughput:
    read, MiB/s:                  0.00
    written, MiB/s:               8.83

General statistics:
    total time:                          10.0363s
    total number of events:              22927

Latency (ms):
         min:                                    0.00
         avg:                                    0.44
         max:                                  157.46
         95th percentile:                        0.01
         sum:                                10023.99

Threads fairness:
    events (avg/stddev):           22927.0000/0.00
    execution time (avg/stddev):   10.0240/0.00

